com\mycompany\oxgame_oop\Game.class
com\mycompany\oxgame_oop\Player.class
com\mycompany\oxgame_oop\boardFrame$2.class
com\mycompany\oxgame_oop\Table.class
com\mycompany\oxgame_oop\boardFrame.class
com\mycompany\oxgame_oop\boardFrame$1.class
com\mycompany\oxgame_oop\Main.class
